<svg xmlns="http://www.w3.org/2000/svg" width="125" height="23.124" viewBox="0 0 125 23.124">
  <g id="Group_75" data-name="Group 75" transform="translate(-215.791 -244.268)">
    <g id="Logo_1" data-name="Logo 1" transform="translate(215.791 244.268)">
      <g id="Group_8" data-name="Group 8" transform="translate(19.619 0)">
        <path id="Path_2" data-name="Path 2" d="M342.4,244.275h-5.026L328.2,267.381h5.044l6.591-17.718,6.829,17.718h5.173Z" transform="translate(-307.453 -244.272)" fill="#fff"/>
        <path id="Path_3" data-name="Path 3" d="M283.119,267.381h5.026l9.177-23.1h-5.044l-6.593,17.719-6.829-17.718h-5.173Z" transform="translate(-273.684 -244.272)" fill="#fff"/>
        <path id="Path_4" data-name="Path 4" d="M411.059,256.843a25.176,25.176,0,0,1-.205,3.859,3.145,3.145,0,0,1-1.217,1.96,4.78,4.78,0,0,1-3,.8,5.048,5.048,0,0,1-3.089-.844,3.672,3.672,0,0,1-1.43-2.237,25.071,25.071,0,0,1-.174-3.8v-12.3h-4.675V256.4a27.065,27.065,0,0,0,.458,5.765,6.219,6.219,0,0,0,1.311,2.519,7.188,7.188,0,0,0,2.709,1.952,13.051,13.051,0,0,0,5.031.751,12.066,12.066,0,0,0,4.455-.69,7.069,7.069,0,0,0,2.722-1.852,6.346,6.346,0,0,0,1.4-2.851,30.125,30.125,0,0,0,.379-5.78V244.275h-4.671Z" transform="translate(-350.234 -244.272)" fill="#fff"/>
        <path id="Path_5" data-name="Path 5" d="M464.342,244.275h-4.795v23.1h16.716v-3.925H464.342Z" transform="translate(-388.812 -244.272)" fill="#fff"/>
        <path id="Path_6" data-name="Path 6" d="M501.352,244.269v3.909h6.988v19.2h4.755v-23.11Z" transform="translate(-414.707 -244.269)" fill="#fff"/>
      </g>
      <g id="Group_7" data-name="Group 7" transform="translate(0 0.001)">
        <path id="Path_1" data-name="Path 1" d="M220.543,272.425H232.37v-3.972H215.791V282.8h17.914v-3.966H220.543Z" transform="translate(-215.791 -259.696)" fill="#0091d9"/>
        <rect id="Rectangle_36" data-name="Rectangle 36" width="17.914" height="3.983" transform="translate(0.001 0.001)" fill="#0091d9"/>
        <rect id="Rectangle_37" data-name="Rectangle 37" width="3.496" height="3.985" transform="translate(121.504)" fill="#0091d9"/>
      </g>
    </g>
  </g>
</svg>
